[
  { 
  "path": "assets/canvas/blank/6.jpg",
  "src":"assets/image/loader.gif",
  "blocks":[
    {
      "type":"image","border":true,
      "x":90.00,"y":90.00,"height":794.00,"width":794.00
    },
    {
      "type":"circle","border":true,
      "x":10.66,"y":614.71,"height":207.63816299833127,"width":207.63816299833127,"color":"white","radius":103.81908149916563
    },
    {
      "type":"dp","border":true,
      "x":12.66,"y":487.71,"height":132.84624999999994,"width":132.84624999999994
    },
    {
      "type":"text","text":"{{name}}","xOri":"left","yOri":"bottom","family":"Halant","fontWeight":700,"textAlign":"left",
      "x":166.96,"y":545.00,"height":381.84709512203415,"width":60.559610768920955,"font":41.559610768920955,"stroke":"#fff","strokeWidth":3.5,"color":"#701019"
    },
    {
      "type":"text","text":"{{mobile}}","xOri":"left","yOri":"top","family":"Halant","fontWeight":600,"textAlign":"left",
      "x":159.49,"y":585.00,"height":272.14738482480465,"width":42.82703412599999,"font":35.82703412599999,"stroke":"#fff","strokeWidth":3,"color":"#701019"
    },
    {
      "type":"text","text":"{{designation}}","xOri":"left","yOri":"top","family":"Halant","fontWeight":600,"textAlign":"left",
      "x":162.96,"y":543.00,"height":394.6655696891533,"width":62.592575901699966,"font":33.592575901699966,"stroke":"#fff","strokeWidth":6.5,"color":"#701019"
    },
    {
      "type":"text","id":"jj","text":"ईश्वर की कृपा बीमा की तरह है। यह बिना किसी सीमा के आपकी आवश्यकता के समय में मदद करेगा","isBreak":true,"breakW":545,"xOri":"left","yOri":"top","family":"Times New Roman","Hfamily":"SahityaBold","fontWeight":400,"textAlign":"center","lineHeight":1.3,
      "x":51.14,"y":24.21,"height":545,"width":132.09724666851508,"font":55.09724666851508,"stroke":"#fff","strokeWidth":3.5,"color":"#701019"
    }
  ],
  "premium":false,"premColor":"orange","premSize":55,"custHeight":755,"custWidth":555,
  "custShow":false,"isEdit":true
},
{ 
  "path": "assets/canvas/blank/02.jpg",
  "src":"assets/image/loader.gif",
  "blocks":[
    {
      "type":"image","border":true,
      "x":90.00,"y":90.00,"height":794.00,"width":794.00
    },
    {
      "type":"circle","border":true,
      "x":10.66,"y":614.71,"height":207.63816299833127,"width":207.63816299833127,"color":"white","radius":103.81908149916563
    },
    {
      "type":"dp","border":true,
      "x":16.66,"y":621.71,"height":196.49231117826537,"width":196.49231117826537
    },
    {
      "type":"text","text":"{{name}}","xOri":"left","yOri":"bottom","family":"Halant","fontWeight":700,"textAlign":"left",
      "x":26.96,"y":906.00,"height":394.6655696891533,"width":62.592575901699966,"font":57.592575901699966,"stroke":"#000000","strokeWidth":6.5,"color":"#fff"
    },
    {
      "type":"text","text":"{{mobile}}","xOri":"left","yOri":"top","family":"Halant","fontWeight":600,"textAlign":"left",
      "x":383.49,"y":720.00,"height":272.14738482480465,"width":42.82703412599999,"font":35.82703412599999,"stroke":"black","strokeWidth":3,"color":"#fff"
    },
    {
      "type":"text","text":"{{designation}}","xOri":"left","yOri":"top","family":"Halant","fontWeight":600,"textAlign":"left",
      "x":26.96,"y":899.00,"height":394.6655696891533,"width":62.592575901699966,"font":41.592575901699966,"stroke":"#000000","strokeWidth":6.5,"color":"#fff"
    },
    {
      "type":"text","id":"jj","text":"If a child, a spouse, a life partner or a parent depends on you and your income, you need life insurance","isBreak":true,"breakW":545,"xOri":"left","yOri":"top","family":"Times New Roman","fontWeight":400,"textAlign":"center","lineHeight":0.95,
      "x":98.87,"y":259.00,"height":545,"width":162.31042010024873,"font":44.31042010024873,"stroke":"#4b1b1b","strokeWidth":2.5,"color":"#ffffff"
    }
  ],
  "premium":false,"premColor":"orange","premSize":55,"custHeight":755,"custWidth":555,
  "custShow":false,"isEdit":true
},
{ 
  "path": "assets/canvas/insurance/e1.png",
  "src":"assets/image/loader.gif",
  "premium":true,"premColor":"orange","premSize":55,
  "dpShow":true,"dx":32,"dy":600,"dsize":255,"radious":455,"dpHeight":195,"dpWidth":195,
  "rect":[
    {
      "x":95,"y":630,"color":"#3f421f","height":156,"width":911
    }
  ],
  "texts":[
    {
      "text":"{{name}}","x":68,"y":45,"xOri":"left","yOri":"top","font":33,"color":"#fff","family":"Times New Roman","fontWeight":500,"opacity":0.3,"angle":-9
    },
    {
      "text":"{{name}}","x":248,"y":635,"xOri":"left","yOri":"top","font":33,"color":"#fff","family":"Times New Roman","fontWeight":500
    },
    {
      "text":"{{designation}}","x":248,"y":691,"xOri":"left","yOri":"top","font":36,"color":"#fff","family":"Times New Roman","fontWeight":500
    },
    {
      "text":"{{mobile}}","x":248,"y":735,"xOri":"left","yOri":"top","font":36,"color":"#fff","family":"Times New Roman","fontWeight":500
    },
    {
    "text":"{{watermark}}","x":9,"y":11,"xOri":"left","yOri":"top","font":19,"color":"orange","family":"sans-serif","fontWeight":666
    }
  ]
},
{ 
  "path": "assets/canvas/insurance/E3.jpg",
  "src":"assets/image/loader.gif",
  "premium":true,"premColor":"orange","premSize":55,
  "dpShow":true,"dx":421,"dy":430,"dsize":55,"radious":455,"dpHeight":135,"dpWidth":135,
  "rect":[
    {
      "x":1,"y":460,"color":"#3f421f","height":131,"width":475
    }
  ],
  "texts":[
    {
      "text":"{{name}}","x":68,"y":45,"xOri":"left","yOri":"top","font":33,"color":"#fff","family":"Times New Roman","fontWeight":500,"opacity":0.3,"angle":-9
    },
    {
      "text":"{{name}}","x":15,"y":463,"xOri":"left","yOri":"top","font":31,"color":"#fff","family":"Times New Roman","fontWeight":500
    },
    {
      "text":"{{designation}}","x":15,"y":499,"xOri":"left","yOri":"top","font":24,"color":"#fff","family":"Times New Roman","fontWeight":500
    },
    {
      "text":"{{mobile}}","x":15,"y":529,"xOri":"left","yOri":"top","font":24,"color":"#fff","family":"Times New Roman","fontWeight":500
    },
    {
    "text":"{{watermark}}","x":9,"y":11,"xOri":"left","yOri":"top","font":15,"color":"orange","family":"sans-serif","fontWeight":666
    }
  ]
},
{ 
  "path": "assets/canvas/insurance/e4.jpg",
  "src":"assets/image/loader.gif",
  "premium":true,"premColor":"orange","premSize":55,
  "dpShow":true,"dx":12,"dy":540,"dsize":255,"radious":455,"dpHeight":145,"dpWidth":145,
  "rect":[
    {
      "x":85,"y":550,"color":"#3f421f","height":125,"width":911
    }
  ],
  "texts":[
    {
      "text":"{{name}}","x":68,"y":45,"xOri":"left","yOri":"top","font":33,"color":"#fff","family":"Times New Roman","fontWeight":500,"opacity":0.3,"angle":-9
    },
    {
      "text":"{{name}}","x":178,"y":553,"xOri":"left","yOri":"top","font":31,"color":"#fff","family":"Times New Roman","fontWeight":500
    },
    {
      "text":"{{designation}}","x":178,"y":595,"xOri":"left","yOri":"top","font":23,"color":"#fff","family":"Times New Roman","fontWeight":500
    },
    {
      "text":"{{mobile}}","x":178,"y":632,"xOri":"left","yOri":"top","font":23,"color":"#fff","family":"Times New Roman","fontWeight":500
    },
    {
    "text":"{{watermark}}","x":7,"y":15,"xOri":"left","yOri":"top","font":13,"color":"black","family":"sans-serif","fontWeight":666
    }
  ]
},
{ 
  "path": "assets/canvas/insurance/e5.jpg",
  "src":"assets/image/loader.gif",
  "premium":true,"premColor":"orange","premSize":55,
  "dpShow":true,"dx":8,"dy":590,"dsize":255,"radious":455,"dpHeight":195,"dpWidth":195,
  "rect":[
    {
      "x":95,"y":606,"color":"#e25158","height":167,"width":911
    }
  ],
  "texts":[
    {
      "text":"{{name}}","x":68,"y":45,"xOri":"left","yOri":"top","font":33,"color":"#fff","family":"Times New Roman","fontWeight":500,"opacity":0.3,"angle":-9
    },
    {
      "text":"{{name}}","x":248,"y":616,"xOri":"left","yOri":"top","font":49,"color":"#fff","family":"Times New Roman","fontWeight":500
    },
    {
      "text":"{{designation}}","x":248,"y":679,"xOri":"left","yOri":"top","font":36,"color":"#fff","family":"Times New Roman","fontWeight":500
    },
    {
      "text":"{{mobile}}","x":248,"y":724,"xOri":"left","yOri":"top","font":36,"color":"#fff","family":"Times New Roman","fontWeight":500
    },
    {
    "text":"{{watermark}}","x":9,"y":11,"xOri":"left","yOri":"top","font":19,"color":"black","family":"sans-serif","fontWeight":666
    }
  ]
},
{ 
  "path": "assets/canvas/insurance/e6.jpg",
  "src":"assets/image/loader.gif",
  "premium":true,"premColor":"orange","premSize":55,
  "dpShow":true,"dx":421,"dy":430,"dsize":55,"radious":455,"dpHeight":135,"dpWidth":135,
  "rect":[
    {
      "x":1,"y":460,"color":"#fea500","height":131,"width":475
    }
  ],
  "texts":[
    {
      "text":"{{name}}","x":68,"y":45,"xOri":"left","yOri":"top","font":33,"color":"#fff","family":"Times New Roman","fontWeight":500,"opacity":0.3,"angle":-9
    },
    {
      "text":"{{name}}","x":15,"y":463,"xOri":"left","yOri":"top","font":31,"color":"#fff","family":"Times New Roman","fontWeight":500
    },
    {
      "text":"{{designation}}","x":15,"y":499,"xOri":"left","yOri":"top","font":24,"color":"#fff","family":"Times New Roman","fontWeight":500
    },
    {
      "text":"{{mobile}}","x":15,"y":529,"xOri":"left","yOri":"top","font":24,"color":"#fff","family":"Times New Roman","fontWeight":500
    },
    {
    "text":"{{watermark}}","x":9,"y":11,"xOri":"left","yOri":"top","font":15,"color":"orange","family":"sans-serif","fontWeight":666
    }
  ]
},
{ 
  "path": "assets/canvas/insurance/h1.jpg",
  "src":"assets/image/loader.gif",
  "premium":true,"premColor":"orange","premSize":55,
  "dpShow":true,"dx":32,"dy":500,"dsize":255,"radious":455,"dpHeight":195,"dpWidth":195,
  "rect":[
    {
      "x":95,"y":530,"color":"orange","height":151,"width":911
    }
  ],
  "texts":[
    {
      "text":"{{name}}","x":68,"y":45,"xOri":"left","yOri":"top","font":33,"color":"#fff","family":"Times New Roman","fontWeight":500,"opacity":0.3,"angle":-9
    },
    {
      "text":"{{name}}","x":248,"y":535,"xOri":"left","yOri":"top","font":49,"color":"#fff","family":"Times New Roman","fontWeight":500
    },
    {
      "text":"{{designation}}","x":248,"y":591,"xOri":"left","yOri":"top","font":36,"color":"#fff","family":"Times New Roman","fontWeight":500
    },
    {
      "text":"{{mobile}}","x":248,"y":635,"xOri":"left","yOri":"top","font":36,"color":"#fff","family":"Times New Roman","fontWeight":500
    },
    {
    "text":"{{watermark}}","x":9,"y":11,"xOri":"left","yOri":"top","font":19,"color":"orange","family":"sans-serif","fontWeight":666
    }
  ]
},
{ 
  "path": "assets/canvas/insurance/h2.gif",
  "src":"assets/image/loader.gif",
  "premium":true,"premColor":"orange","premSize":55,
  "dpShow":true,"dx":32,"dy":500,"dsize":255,"radious":455,"dpHeight":195,"dpWidth":195,
  "rect":[
    {
      "x":95,"y":530,"color":"#3f421f","height":151,"width":911
    }
  ],
  "texts":[
    {
      "text":"{{name}}","x":68,"y":45,"xOri":"left","yOri":"top","font":33,"color":"#fff","family":"Times New Roman","fontWeight":500,"opacity":0.3,"angle":-9
    },
    {
      "text":"{{name}}","x":248,"y":535,"xOri":"left","yOri":"top","font":49,"color":"#fff","family":"Times New Roman","fontWeight":500
    },
    {
      "text":"{{designation}}","x":248,"y":591,"xOri":"left","yOri":"top","font":36,"color":"#fff","family":"Times New Roman","fontWeight":500
    },
    {
      "text":"{{mobile}}","x":248,"y":635,"xOri":"left","yOri":"top","font":36,"color":"#fff","family":"Times New Roman","fontWeight":500
    },
    {
    "text":"{{watermark}}","x":9,"y":11,"xOri":"left","yOri":"top","font":19,"color":"orange","family":"sans-serif","fontWeight":666
    }
  ]
},
{ 
  "path": "assets/canvas/insurance/1.jpg",
  "src":"assets/image/loader.gif",
  "premium":true,"premColor":"orange","premSize":55,
  "dpShow":true,"dx":32,"dy":600,"dsize":255,"radious":455,"dpHeight":195,"dpWidth":195,
  "rect":[
    {
      "x":95,"y":630,"color":"#3f421f","height":151,"width":911
    }
  ],
  "texts":[
    {
      "text":"{{name}}","x":68,"y":45,"xOri":"left","yOri":"top","font":33,"color":"#fff","family":"Times New Roman","fontWeight":500,"opacity":0.3,"angle":-9
    },
    {
      "text":"{{name}}","x":248,"y":635,"xOri":"left","yOri":"top","font":49,"color":"#fff","family":"Times New Roman","fontWeight":500
    },
    {
      "text":"{{designation}}","x":248,"y":691,"xOri":"left","yOri":"top","font":36,"color":"#fff","family":"Times New Roman","fontWeight":500
    },
    {
      "text":"{{mobile}}","x":248,"y":735,"xOri":"left","yOri":"top","font":36,"color":"#fff","family":"Times New Roman","fontWeight":500
    },
    {
    "text":"{{watermark}}","x":9,"y":11,"xOri":"left","yOri":"top","font":19,"color":"orange","family":"sans-serif","fontWeight":666
    }
  ]
},
{ 
  "path": "assets/canvas/insurance/2.jpg",
  "src":"assets/image/loader.gif",
  "premium":true,"premColor":"orange","premSize":55,
  "dpShow":true,"dx":32,"dy":600,"dsize":255,"radious":455,"dpHeight":195,"dpWidth":195,
  "rect":[
    {
      "x":95,"y":630,"color":"#3f421f","height":151,"width":911
    }
  ],
  "texts":[
    {
      "text":"{{name}}","x":68,"y":45,"xOri":"left","yOri":"top","font":33,"color":"#fff","family":"Times New Roman","fontWeight":500,"opacity":0.3,"angle":-9
    },
    {
      "text":"{{name}}","x":248,"y":635,"xOri":"left","yOri":"top","font":49,"color":"#fff","family":"Times New Roman","fontWeight":500
    },
    {
      "text":"{{designation}}","x":248,"y":691,"xOri":"left","yOri":"top","font":36,"color":"#fff","family":"Times New Roman","fontWeight":500
    },
    {
      "text":"{{mobile}}","x":248,"y":735,"xOri":"left","yOri":"top","font":36,"color":"#fff","family":"Times New Roman","fontWeight":500
    },
    {
    "text":"{{watermark}}","x":9,"y":11,"xOri":"left","yOri":"top","font":19,"color":"orange","family":"sans-serif","fontWeight":666
    }
  ]
},
{ 
  "path": "assets/canvas/insurance/3.jpg",
  "src":"assets/image/loader.gif",
  "premium":true,"premColor":"orange","premSize":55,
  "dpShow":true,"dx":32,"dy":600,"dsize":255,"radious":455,"dpHeight":195,"dpWidth":195,
  "rect":[
    {
      "x":95,"y":630,"color":"#3f421f","height":151,"width":911
    }
  ],
  "texts":[
    {
      "text":"{{name}}","x":68,"y":45,"xOri":"left","yOri":"top","font":33,"color":"#fff","family":"Times New Roman","fontWeight":500,"opacity":0.3,"angle":-9
    },
    {
      "text":"{{name}}","x":248,"y":635,"xOri":"left","yOri":"top","font":49,"color":"#fff","family":"Times New Roman","fontWeight":500
    },
    {
      "text":"{{designation}}","x":248,"y":691,"xOri":"left","yOri":"top","font":36,"color":"#fff","family":"Times New Roman","fontWeight":500
    },
    {
      "text":"{{mobile}}","x":248,"y":735,"xOri":"left","yOri":"top","font":36,"color":"#fff","family":"Times New Roman","fontWeight":500
    },
    {
    "text":"{{watermark}}","x":9,"y":11,"xOri":"left","yOri":"top","font":19,"color":"orange","family":"sans-serif","fontWeight":666
    }
  ]
},
{ 
  "path": "assets/canvas/insurance/4.jpg",
  "src":"assets/image/loader.gif",
  "premium":true,"premColor":"orange","premSize":55,
  "dpShow":true,"dx":32,"dy":600,"dsize":255,"radious":455,"dpHeight":195,"dpWidth":195,
  "rect":[
    {
      "x":95,"y":630,"color":"#3f421f","height":151,"width":911
    }
  ],
  "texts":[
    {
      "text":"{{name}}","x":68,"y":45,"xOri":"left","yOri":"top","font":33,"color":"#fff","family":"Times New Roman","fontWeight":500,"opacity":0.3,"angle":-9
    },
    {
      "text":"{{name}}","x":248,"y":635,"xOri":"left","yOri":"top","font":49,"color":"#fff","family":"Times New Roman","fontWeight":500
    },
    {
      "text":"{{designation}}","x":248,"y":691,"xOri":"left","yOri":"top","font":36,"color":"#fff","family":"Times New Roman","fontWeight":500
    },
    {
      "text":"{{mobile}}","x":248,"y":735,"xOri":"left","yOri":"top","font":36,"color":"#fff","family":"Times New Roman","fontWeight":500
    },
    {
    "text":"{{watermark}}","x":9,"y":11,"xOri":"left","yOri":"top","font":19,"color":"orange","family":"sans-serif","fontWeight":666
    }
  ]
},
{ 
  "path": "assets/canvas/insurance/5.jpg",
  "src":"assets/image/loader.gif",
  "premium":true,"premColor":"orange","premSize":55,
  "dpShow":true,"dx":32,"dy":600,"dsize":255,"radious":455,"dpHeight":195,"dpWidth":195,
  "rect":[
    {
      "x":95,"y":630,"color":"#3f421f","height":151,"width":911
    }
  ],
  "texts":[
    {
      "text":"{{name}}","x":68,"y":45,"xOri":"left","yOri":"top","font":33,"color":"#fff","family":"Times New Roman","fontWeight":500,"opacity":0.3,"angle":-9
    },
    {
      "text":"{{name}}","x":248,"y":635,"xOri":"left","yOri":"top","font":49,"color":"#fff","family":"Times New Roman","fontWeight":500
    },
    {
      "text":"{{designation}}","x":248,"y":691,"xOri":"left","yOri":"top","font":36,"color":"#fff","family":"Times New Roman","fontWeight":500
    },
    {
      "text":"{{mobile}}","x":248,"y":735,"xOri":"left","yOri":"top","font":36,"color":"#fff","family":"Times New Roman","fontWeight":500
    },
    {
    "text":"{{watermark}}","x":9,"y":11,"xOri":"left","yOri":"top","font":19,"color":"orange","family":"sans-serif","fontWeight":666
    }
  ]
},
{ 
  "path": "assets/canvas/insurance/6.jpg",
  "src":"assets/image/loader.gif",
  "premium":true,"premColor":"orange","premSize":55,
  "dpShow":true,"dx":32,"dy":600,"dsize":255,"radious":455,"dpHeight":195,"dpWidth":195,
  "rect":[
    {
      "x":95,"y":630,"color":"#3f421f","height":151,"width":911
    }
  ],
  "texts":[
    {
      "text":"{{name}}","x":68,"y":45,"xOri":"left","yOri":"top","font":33,"color":"#fff","family":"Times New Roman","fontWeight":500,"opacity":0.3,"angle":-9
    },
    {
      "text":"{{name}}","x":248,"y":635,"xOri":"left","yOri":"top","font":49,"color":"#fff","family":"Times New Roman","fontWeight":500
    },
    {
      "text":"{{designation}}","x":248,"y":691,"xOri":"left","yOri":"top","font":36,"color":"#fff","family":"Times New Roman","fontWeight":500
    },
    {
      "text":"{{mobile}}","x":248,"y":735,"xOri":"left","yOri":"top","font":36,"color":"#fff","family":"Times New Roman","fontWeight":500
    },
    {
    "text":"{{watermark}}","x":9,"y":11,"xOri":"left","yOri":"top","font":19,"color":"orange","family":"sans-serif","fontWeight":666
    }
  ]
},
{ 
  "path": "assets/canvas/insurance/7.jpg",
  "src":"assets/image/loader.gif",
  "premium":true,"premColor":"orange","premSize":55,
  "dpShow":true,"dx":32,"dy":600,"dsize":255,"radious":455,"dpHeight":195,"dpWidth":195,
  "rect":[
    {
      "x":95,"y":630,"color":"#3f421f","height":151,"width":911
    }
  ],
  "texts":[
    {
      "text":"{{name}}","x":68,"y":45,"xOri":"left","yOri":"top","font":33,"color":"#fff","family":"Times New Roman","fontWeight":500,"opacity":0.3,"angle":-9
    },
    {
      "text":"{{name}}","x":248,"y":635,"xOri":"left","yOri":"top","font":49,"color":"#fff","family":"Times New Roman","fontWeight":500
    },
    {
      "text":"{{designation}}","x":248,"y":691,"xOri":"left","yOri":"top","font":36,"color":"#fff","family":"Times New Roman","fontWeight":500
    },
    {
      "text":"{{mobile}}","x":248,"y":735,"xOri":"left","yOri":"top","font":36,"color":"#fff","family":"Times New Roman","fontWeight":500
    },
    {
    "text":"{{watermark}}","x":9,"y":11,"xOri":"left","yOri":"top","font":19,"color":"orange","family":"sans-serif","fontWeight":666
    }
  ]
},
{ 
  "path": "assets/canvas/insurance/8.jpg",
  "src":"assets/image/loader.gif",
  "premium":true,"premColor":"orange","premSize":55,
  "dpShow":true,"dx":32,"dy":600,"dsize":255,"radious":455,"dpHeight":195,"dpWidth":195,
  "rect":[
    {
      "x":95,"y":630,"color":"#3f421f","height":151,"width":911
    }
  ],
  "texts":[
    {
      "text":"{{name}}","x":68,"y":45,"xOri":"left","yOri":"top","font":33,"color":"#fff","family":"Times New Roman","fontWeight":500,"opacity":0.3,"angle":-9
    },
    {
      "text":"{{name}}","x":248,"y":635,"xOri":"left","yOri":"top","font":49,"color":"#fff","family":"Times New Roman","fontWeight":500
    },
    {
      "text":"{{designation}}","x":248,"y":691,"xOri":"left","yOri":"top","font":36,"color":"#fff","family":"Times New Roman","fontWeight":500
    },
    {
      "text":"{{mobile}}","x":248,"y":735,"xOri":"left","yOri":"top","font":36,"color":"#fff","family":"Times New Roman","fontWeight":500
    },
    {
    "text":"{{watermark}}","x":9,"y":11,"xOri":"left","yOri":"top","font":19,"color":"orange","family":"sans-serif","fontWeight":666
    }
  ]
},
{ 
  "path": "assets/canvas/insurance/9.jpg",
  "src":"assets/image/loader.gif",
  "premium":true,"premColor":"orange","premSize":55,
  "dpShow":true,"dx":32,"dy":600,"dsize":255,"radious":455,"dpHeight":195,"dpWidth":195,
  "rect":[
    {
      "x":95,"y":630,"color":"#3f421f","height":151,"width":911
    }
  ],
  "texts":[
    {
      "text":"{{name}}","x":68,"y":45,"xOri":"left","yOri":"top","font":33,"color":"#fff","family":"Times New Roman","fontWeight":500,"opacity":0.3,"angle":-9
    },
    {
      "text":"{{name}}","x":248,"y":635,"xOri":"left","yOri":"top","font":49,"color":"#fff","family":"Times New Roman","fontWeight":500
    },
    {
      "text":"{{designation}}","x":248,"y":691,"xOri":"left","yOri":"top","font":36,"color":"#fff","family":"Times New Roman","fontWeight":500
    },
    {
      "text":"{{mobile}}","x":248,"y":735,"xOri":"left","yOri":"top","font":36,"color":"#fff","family":"Times New Roman","fontWeight":500
    },
    {
    "text":"{{watermark}}","x":9,"y":11,"xOri":"left","yOri":"top","font":19,"color":"orange","family":"sans-serif","fontWeight":666
    }
  ]
},
{ 
  "path": "assets/canvas/insurance/11.jpg",
  "src":"assets/image/loader.gif",
  "premium":true,"premColor":"orange","premSize":55,
  "dpShow":true,"dx":32,"dy":600,"dsize":255,"radious":455,"dpHeight":195,"dpWidth":195,
  "rect":[
    {
      "x":95,"y":630,"color":"#3f421f","height":151,"width":911
    }
  ],
  "texts":[
    {
      "text":"{{name}}","x":68,"y":45,"xOri":"left","yOri":"top","font":33,"color":"#fff","family":"Times New Roman","fontWeight":500,"opacity":0.3,"angle":-9
    },
    {
      "text":"{{name}}","x":248,"y":635,"xOri":"left","yOri":"top","font":49,"color":"#fff","family":"Times New Roman","fontWeight":500
    },
    {
      "text":"{{designation}}","x":248,"y":691,"xOri":"left","yOri":"top","font":36,"color":"#fff","family":"Times New Roman","fontWeight":500
    },
    {
      "text":"{{mobile}}","x":248,"y":735,"xOri":"left","yOri":"top","font":36,"color":"#fff","family":"Times New Roman","fontWeight":500
    },
    {
    "text":"{{watermark}}","x":9,"y":11,"xOri":"left","yOri":"top","font":19,"color":"orange","family":"sans-serif","fontWeight":666
    }
  ]
},
{ 
  "path": "assets/canvas/insurance/13.jpg",
  "src":"assets/image/loader.gif",
  "premium":true,"premColor":"orange","premSize":55,
  "dpShow":true,"dx":32,"dy":600,"dsize":255,"radious":455,"dpHeight":195,"dpWidth":195,
  "rect":[
    {
      "x":95,"y":630,"color":"#3f421f","height":151,"width":911
    }
  ],
  "texts":[
    {
      "text":"{{name}}","x":68,"y":45,"xOri":"left","yOri":"top","font":33,"color":"#fff","family":"Times New Roman","fontWeight":500,"opacity":0.3,"angle":-9
    },
    {
      "text":"{{name}}","x":248,"y":635,"xOri":"left","yOri":"top","font":49,"color":"#fff","family":"Times New Roman","fontWeight":500
    },
    {
      "text":"{{designation}}","x":248,"y":691,"xOri":"left","yOri":"top","font":36,"color":"#fff","family":"Times New Roman","fontWeight":500
    },
    {
      "text":"{{mobile}}","x":248,"y":735,"xOri":"left","yOri":"top","font":36,"color":"#fff","family":"Times New Roman","fontWeight":500
    },
    {
    "text":"{{watermark}}","x":9,"y":11,"xOri":"left","yOri":"top","font":19,"color":"orange","family":"sans-serif","fontWeight":666
    }
  ]
},
{ 
  "path": "assets/canvas/insurance/14.jpg",
  "src":"assets/image/loader.gif",
  "premium":true,"premColor":"orange","premSize":55,
  "dpShow":true,"dx":32,"dy":600,"dsize":255,"radious":455,"dpHeight":195,"dpWidth":195,
  "rect":[
    {
      "x":95,"y":630,"color":"#3f421f","height":151,"width":911
    }
  ],
  "texts":[
    {
      "text":"{{name}}","x":68,"y":45,"xOri":"left","yOri":"top","font":33,"color":"#fff","family":"Times New Roman","fontWeight":500,"opacity":0.3,"angle":-9
    },
    {
      "text":"{{name}}","x":248,"y":635,"xOri":"left","yOri":"top","font":49,"color":"#fff","family":"Times New Roman","fontWeight":500
    },
    {
      "text":"{{designation}}","x":248,"y":691,"xOri":"left","yOri":"top","font":36,"color":"#fff","family":"Times New Roman","fontWeight":500
    },
    {
      "text":"{{mobile}}","x":248,"y":735,"xOri":"left","yOri":"top","font":36,"color":"#fff","family":"Times New Roman","fontWeight":500
    },
    {
    "text":"{{watermark}}","x":9,"y":11,"xOri":"left","yOri":"top","font":19,"color":"orange","family":"sans-serif","fontWeight":666
    }
  ]
},
{ 
  "path": "assets/canvas/insurance/1.jpg",
  "src":"assets/image/loader.gif",
  "premium":true,"premColor":"orange","premSize":55,
  "dpShow":true,"dx":32,"dy":600,"dsize":255,"radious":455,"dpHeight":195,"dpWidth":195,
  "rect":[
    {
      "x":95,"y":630,"color":"#3f421f","height":151,"width":911
    }
  ],
  "texts":[
    {
      "text":"{{name}}","x":68,"y":45,"xOri":"left","yOri":"top","font":33,"color":"#fff","family":"Times New Roman","fontWeight":500,"opacity":0.3,"angle":-9
    },
    {
      "text":"{{name}}","x":248,"y":635,"xOri":"left","yOri":"top","font":49,"color":"#fff","family":"Times New Roman","fontWeight":500
    },
    {
      "text":"{{designation}}","x":248,"y":691,"xOri":"left","yOri":"top","font":36,"color":"#fff","family":"Times New Roman","fontWeight":500
    },
    {
      "text":"{{mobile}}","x":248,"y":735,"xOri":"left","yOri":"top","font":36,"color":"#fff","family":"Times New Roman","fontWeight":500
    },
    {
    "text":"{{watermark}}","x":9,"y":11,"xOri":"left","yOri":"top","font":19,"color":"orange","family":"sans-serif","fontWeight":666
    }
  ]
},
{ 
  "path": "assets/canvas/insurance/2.jpg",
  "src":"assets/image/loader.gif",
  "premium":true,"premColor":"orange","premSize":55,
  "dpShow":true,"dx":32,"dy":600,"dsize":255,"radious":455,"dpHeight":195,"dpWidth":195,
  "rect":[
    {
      "x":95,"y":630,"color":"#3f421f","height":151,"width":911
    }
  ],
  "texts":[
    {
      "text":"{{name}}","x":68,"y":45,"xOri":"left","yOri":"top","font":33,"color":"#fff","family":"Times New Roman","fontWeight":500,"opacity":0.3,"angle":-9
    },
    {
      "text":"{{name}}","x":248,"y":635,"xOri":"left","yOri":"top","font":49,"color":"#fff","family":"Times New Roman","fontWeight":500
    },
    {
      "text":"{{designation}}","x":248,"y":691,"xOri":"left","yOri":"top","font":36,"color":"#fff","family":"Times New Roman","fontWeight":500
    },
    {
      "text":"{{mobile}}","x":248,"y":735,"xOri":"left","yOri":"top","font":36,"color":"#fff","family":"Times New Roman","fontWeight":500
    },
    {
    "text":"{{watermark}}","x":9,"y":11,"xOri":"left","yOri":"top","font":19,"color":"orange","family":"sans-serif","fontWeight":666
    }
  ]
}
]